<?xml version="1.0" encoding="UTF-8"?>
<session version="1.0">
<refactoring accessors="true" comment="Delete element from project &apos;simple-eclipse-maven-consum&apos;&#x0D;&#x0A;- Original project: &apos;simple-eclipse-maven-consum&apos;&#x0D;&#x0A;- Original element: &apos;com.example.model.Persona.java&apos;" description="Delete element" element1="/src\/main\/java&lt;com.example.model{Persona.java" elements="1" flags="589830" id="org.eclipse.jdt.ui.delete" resources="0" stamp="1602692237532" subPackages="false" version="1.0"/>
</session>